@00 1101000001111000
@01 1101000101111001
@02 0010000000000001
@03 1010000000100001
@04 0110000001000000
@05 0110000101100000
@06 1010101000000011
@07 0010001100000100
@08 1011100010000011
@09 1101010100000001
@0a 1010010011000101
@0b 1010001001000110
@0c 1000000001000000
@0d 1101011001111010
@0e 0110011010100000
@0f 1010001001000110
@10 1000000001000000
@11 1010101000000011
@12 0010001100000100
@13 1011100010000011
@14 1101010100000001
@15 1010010011000101
@16 1010001001000110
@17 1000000001000000
@18 1101000001100100
@19 1101000101100100
@1a 1010100000000001
@1b 0010000100000010
@1c 1101001001100101
@1d 0010000000000001
@1e 1101001000000000
@1f 1010100000000010
@20 0010000100000010
@21 1101001100110010
@22 0010000000000001
@23 1101001100011001
@24 1101010000110010
@25 1101010100110011
@26 1010110000000101
@27 0010001000000010
@28 1101011000000001
@29 0010000000000001
@2a 1101011000000000
@2b 1101010100110010
@2c 1010110000000101
@2d 0010001000000010
@2e 1101011000000001
@2f 0010000000000001
@30 1101011000000000
@31 1101010000110010
@32 1010110000000101
@33 1101011001100100
@34 0010010000000010
@35 1101011000000000
@36 0010000000000001
@37 1101011000000001
@38 1101010000110001
@39 1101011001100100
@3a 1010110000000101
@3b 0010010000000010
@3c 1101011000000000
@3d 0010000000000001
@3e 1101011000000001
@3f 1101010000110011
@40 1101011001100100
@41 1010110000000101
@42 0010010000000010
@43 1101011000000001
@44 0010000000000001
@45 1101011000000000
@46 0000000000000000
@47 0000000000000000
@48 0000000000000000
@49 0000000000000000
@4a 0000000000000000
@4b 0000000000000000
@4c 0000000000000000
@4d 0000000000000000
@4e 0000000000000000
@4f 0000000000000000
@50 0000000000000000
@51 0000000000000000
@52 0000000000000000
@53 0000000000000000
@54 0000000000000000
@55 0000000000000000
@56 0000000000000000
@57 0000000000000000
@58 0000000000000000
@59 0000000000000000
@5a 0000000000000000
@5b 0000000000000000
@5c 0000000000000000
@5d 0000000000000000
@5e 0000000000000000
@5f 0000000000000000
@60 0000000000000000
@61 0000000000000000
@62 0000000000000000
@63 0000000000000000
@64 0000000000000000
@65 0000000000000000
@66 0000000000000000
@67 0000000000000000
@68 0000000000000000
@69 0000000000000000
@6a 0000000000000000
@6b 0000000000000000
@6c 0000000000000000
@6d 0000000000000000
@6e 0000000000000000
@6f 0000000000000000
@70 0000000000000000
@71 0000000000000000
@72 0000000000000000
@73 0000000000000000
@74 0000000000000000
@75 0000000000000000
@76 0000000000000000
@77 0000000000000000
@78 0000000000110010
@79 0000000001111101
@7a 0000000001100100
@7b 0000000000000000
@7c 0000000000000000
@7d 0000000000000000
@7e 0000000000000000
@7f 0000000000000000
@80 0000000000000000
@81 0000000000000000
@82 0000000000000000
@83 0000000000000000
@84 0000000000000000
@85 0000000000000000
@86 0000000000000000
@87 0000000000000000
@88 0000000000000000
@89 0000000000000000
@8a 0000000000000000
@8b 0000000000000000
@8c 0000000000000000
@8d 0000000000000000
@8e 0000000000000000
@8f 0000000000000000
@90 0000000000000000
@91 0000000000000000
@92 0000000000000000
@93 0000000000000000
@94 0000000000000000
@95 0000000000000000
@96 0000000000000000
@97 0000000000000000
@98 0000000000000000
@99 0000000000000000
@9a 0000000000000000
@9b 0000000000000000
@9c 0000000000000000
@9d 0000000000000000
@9e 0000000000000000
@9f 0000000000000000
@a0 0000000000000000
@a1 0000000000000000
@a2 0000000000000000
@a3 0000000000000000
@a4 0000000000000000
@a5 0000000000000000
@a6 0000000000000000
@a7 0000000000000000
@a8 0000000000000000
@a9 0000000000000000
@aa 0000000000000000
@ab 0000000000000000
@ac 0000000000000000
@ad 0000000000000000
@ae 0000000000000000
@af 0000000000000000
@b0 0000000000000000
@b1 0000000000000000
@b2 0000000000000000
@b3 0000000000000000
@b4 0000000000000000
@b5 0000000000000000
@b6 0000000000000000
@b7 0000000000000000
@b8 0000000000000000
@b9 0000000000000000
@ba 0000000000000000
@bb 0000000000000000
@bc 0000000000000000
@bd 0000000000000000
@be 0000000000000000
@bf 0000000000000000
@c0 0000000000000000
@c1 0000000000000000
@c2 0000000000000000
@c3 0000000000000000
@c4 0000000000000000
@c5 0000000000000000
@c6 0000000000000000
@c7 0000000000000000
@c8 0000000000000000
@c9 0000000000000000
@ca 0000000000000000
@cb 0000000000000000
@cc 0000000000000000
@cd 0000000000000000
@ce 0000000000000000
@cf 0000000000000000
@d0 0000000000000000
@d1 0000000000000000
@d2 0000000000000000
@d3 0000000000000000
@d4 0000000000000000
@d5 0000000000000000
@d6 0000000000000000
@d7 0000000000000000
@d8 0000000000000000
@d9 0000000000000000
@da 0000000000000000
@db 0000000000000000
@dc 0000000000000000
@dd 0000000000000000
@de 0000000000000000
@df 0000000000000000
@e0 0000000000000000
@e1 0000000000000000
@e2 0000000000000000
@e3 0000000000000000
@e4 0000000000000000
@e5 0000000000000000
@e6 0000000000000000
@e7 0000000000000000
@e8 0000000000000000
@e9 0000000000000000
@ea 0000000000000000
@eb 0000000000000000
@ec 0000000000000000
@ed 0000000000000000
@ee 0000000000000000
@ef 0000000000000000
@f0 0000000000000000
@f1 0000000000000000
@f2 0000000000000000
@f3 0000000000000000
@f4 0000000000000000
@f5 0000000000000000
@f6 0000000000000000
@f7 0000000000000000
@f8 0000000000000000
@f9 0000000000000000
@fa 0000000000000000
@fb 0000000000000000
@fc 0000000000000000
@fd 0000000000000000
@fe 0000000000000000
@ff 0000000000000000
